{
  "cloudwatch.emitMetrics": true,
  "kinesis.endpoint": "",
  "firehose.endpoint": "",

  "flows": [
    {
      "filePattern": "/var/log/onica/*.log",
      "deliveryStream": "DemoPurchaseLogs"
    },
    {
      "filePattern": "/var/log/onica/*.log",
      "kinesisStream": "DemoOnicaOrders",
      "partitionKeyOption": "RANDOM",
      "dataProcessingOptions": [
         {
            "optionName": "CSVTOJSON",
            "customFieldNames": ["InvoiceNo", "StockCode", "Description", "Quantity", "InvoiceDate", "UnitPrice", "Customer", "Country"]
         }
      ]
    }
  ]
}